New tidyr verbs demo
…
The new pivot_longer() includes functions to gather and separate multiple columns in a single command. Previously this would have required multiple iterations of gather() and separate().

There are 3 types of observations in this dataset: gdpPercap, lifeExp, and pop.

Heres how you would lengthen this dataframe the old way:

gap_wide %>% 
  gather(c(-continent, -country),
         key = "obstype_year",
         value = "value")

## # A tibble: 5,112 x 4
##    continent country                  obstype_year   value
##    <chr>     <chr>                    <chr>          <dbl>
##  1 Africa    Algeria                  gdpPercap_1952 2449.
##  2 Africa    Angola                   gdpPercap_1952 3521.
##  3 Africa    Benin                    gdpPercap_1952 1063.
##  4 Africa    Botswana                 gdpPercap_1952  851.
##  5 Africa    Burkina Faso             gdpPercap_1952  543.
##  6 Africa    Burundi                  gdpPercap_1952  339.
##  7 Africa    Cameroon                 gdpPercap_1952 1173.
##  8 Africa    Central African Republic gdpPercap_1952 1071.
##  9 Africa    Chad                     gdpPercap_1952 1179.
## 10 Africa    Comoros                  gdpPercap_1952 1103.
## # ... with 5,102 more rows

And here it is using the new way:

gap_wide %>% 
  pivot_longer(cols = c(-continent, -country),
               names_to = "obstype_year",
               values_to = "value")

## # A tibble: 5,112 x 4
##    continent country obstype_year   value
##    <chr>     <chr>   <chr>          <dbl>
##  1 Africa    Algeria gdpPercap_1952 2449.
##  2 Africa    Algeria gdpPercap_1957 3014.
##  3 Africa    Algeria gdpPercap_1962 2551.
##  4 Africa    Algeria gdpPercap_1967 3247.
##  5 Africa    Algeria gdpPercap_1972 4183.
##  6 Africa    Algeria gdpPercap_1977 4910.
##  7 Africa    Algeria gdpPercap_1982 5745.
##  8 Africa    Algeria gdpPercap_1987 5681.
##  9 Africa    Algeria gdpPercap_1992 5023.
## 10 Africa    Algeria gdpPercap_1997 4797.
## # ... with 5,102 more rows

Notice that the obstype_year column still contains two pieces of information.

Heres how we would have separated that column into two using the old method:

gap_wide %>% 
  gather(c(-continent, -country),
         key = "obstype_year",
         value = "value") %>% 
  separate(obstype_year,
           into = c("obstype", "year"),
           sep = "_")

## # A tibble: 5,112 x 5
##    continent country                  obstype   year  value
##    <chr>     <chr>                    <chr>     <chr> <dbl>
##  1 Africa    Algeria                  gdpPercap 1952  2449.
##  2 Africa    Angola                   gdpPercap 1952  3521.
##  3 Africa    Benin                    gdpPercap 1952  1063.
##  4 Africa    Botswana                 gdpPercap 1952   851.
##  5 Africa    Burkina Faso             gdpPercap 1952   543.
##  6 Africa    Burundi                  gdpPercap 1952   339.
##  7 Africa    Cameroon                 gdpPercap 1952  1173.
##  8 Africa    Central African Republic gdpPercap 1952  1071.
##  9 Africa    Chad                     gdpPercap 1952  1179.
## 10 Africa    Comoros                  gdpPercap 1952  1103.
## # ... with 5,102 more rows

And heres how we can do it with a single command the new way:

gap_wide %>% 
  pivot_longer(cols = c(-continent, -country),
               names_sep = "_",
               names_to = c("obstype", "year"),
               values_to = "value")

## # A tibble: 5,112 x 5
##    continent country obstype   year  value
##    <chr>     <chr>   <chr>     <chr> <dbl>
##  1 Africa    Algeria gdpPercap 1952  2449.
##  2 Africa    Algeria gdpPercap 1957  3014.
##  3 Africa    Algeria gdpPercap 1962  2551.
##  4 Africa    Algeria gdpPercap 1967  3247.
##  5 Africa    Algeria gdpPercap 1972  4183.
##  6 Africa    Algeria gdpPercap 1977  4910.
##  7 Africa    Algeria gdpPercap 1982  5745.
##  8 Africa    Algeria gdpPercap 1987  5681.
##  9 Africa    Algeria gdpPercap 1992  5023.
## 10 Africa    Algeria gdpPercap 1997  4797.
## # ... with 5,102 more rows

Finally, notice that the new year is in character format, but well probably need it to be an integer for future analyses. We can also specify that ahead of time in pivot_longer().

gap_long <- gap_wide %>% 
  pivot_longer(cols = c(-continent, -country),
               names_sep = "_",
               names_to = c("obstype", "year"),
               values_to = "value",
               names_ptypes = list(year = integer()))

gap_long

## # A tibble: 5,112 x 5
##    continent country obstype    year value
##    <chr>     <chr>   <chr>     <int> <dbl>
##  1 Africa    Algeria gdpPercap  1952 2449.
##  2 Africa    Algeria gdpPercap  1957 3014.
##  3 Africa    Algeria gdpPercap  1962 2551.
##  4 Africa    Algeria gdpPercap  1967 3247.
##  5 Africa    Algeria gdpPercap  1972 4183.
##  6 Africa    Algeria gdpPercap  1977 4910.
##  7 Africa    Algeria gdpPercap  1982 5745.
##  8 Africa    Algeria gdpPercap  1987 5681.
##  9 Africa    Algeria gdpPercap  1992 5023.
## 10 Africa    Algeria gdpPercap  1997 4797.
## # ... with 5,102 more rows
…
From long to wide: pivot_wider() (formerly known as spread())

Suppose you now want to look at the relationship between GDP and life expectancy. You will need to spread those observations back out into new columns.

Heres how we would have done it the old way:

gap_long %>% 
  spread(key = "obstype", value = "value")

## # A tibble: 1,704 x 6
##    continent country  year gdpPercap lifeExp      pop
##    <chr>     <chr>   <int>     <dbl>   <dbl>    <dbl>
##  1 Africa    Algeria  1952     2449.    43.1  9279525
##  2 Africa    Algeria  1957     3014.    45.7 10270856
##  3 Africa    Algeria  1962     2551.    48.3 11000948
##  4 Africa    Algeria  1967     3247.    51.4 12760499
##  5 Africa    Algeria  1972     4183.    54.5 14760787
##  6 Africa    Algeria  1977     4910.    58.0 17152804
##  7 Africa    Algeria  1982     5745.    61.4 20033753
##  8 Africa    Algeria  1987     5681.    65.8 23254956
##  9 Africa    Algeria  1992     5023.    67.7 26298373
## 10 Africa    Algeria  1997     4797.    69.2 29072015
## # ... with 1,694 more rows

And heres the new way:

gap_intermediate <- gap_long %>% 
  pivot_wider(names_from = obstype,
              values_from = value)

gap_intermediate

## # A tibble: 1,704 x 6
##    continent country  year gdpPercap lifeExp      pop
##    <chr>     <chr>   <int>     <dbl>   <dbl>    <dbl>
##  1 Africa    Algeria  1952     2449.    43.1  9279525
##  2 Africa    Algeria  1957     3014.    45.7 10270856
##  3 Africa    Algeria  1962     2551.    48.3 11000948
##  4 Africa    Algeria  1967     3247.    51.4 12760499
##  5 Africa    Algeria  1972     4183.    54.5 14760787
##  6 Africa    Algeria  1977     4910.    58.0 17152804
##  7 Africa    Algeria  1982     5745.    61.4 20033753
##  8 Africa    Algeria  1987     5681.    65.8 23254956
##  9 Africa    Algeria  1992     5023.    67.7 26298373
## 10 Africa    Algeria  1997     4797.    69.2 29072015
## # ... with 1,694 more rows
…
If you want to go a step further and pivot the dataframe all the way back to the original wide format:

gap_wide2 <- gap_long %>% 
  pivot_wider(names_from = c(obstype, year),
              values_from = value)

gap_wide2

## # A tibble: 142 x 38
##    continent country gdpPercap_1952 gdpPercap_1957 gdpPercap_1962
##    <chr>     <chr>            <dbl>          <dbl>          <dbl>
##  1 Africa    Algeria          2449.          3014.          2551.
##  2 Africa    Angola           3521.          3828.          4269.
##  3 Africa    Benin            1063.           960.           949.
##  4 Africa    Botswa~           851.           918.           984.
##  5 Africa    Burkin~           543.           617.           723.
##  6 Africa    Burundi           339.           380.           355.
##  7 Africa    Camero~          1173.          1313.          1400.
##  8 Africa    Centra~          1071.          1191.          1193.
##  9 Africa    Chad             1179.          1308.          1390.
## 10 Africa    Comoros          1103.          1211.          1407.
## # ... with 132 more rows, and 33 more variables: gdpPercap_1967 <dbl>,
## #   gdpPercap_1972 <dbl>, gdpPercap_1977 <dbl>, gdpPercap_1982 <dbl>,
## #   gdpPercap_1987 <dbl>, gdpPercap_1992 <dbl>, gdpPercap_1997 <dbl>,
## #   gdpPercap_2002 <dbl>, gdpPercap_2007 <dbl>, lifeExp_1952 <dbl>,
## #   lifeExp_1957 <dbl>, lifeExp_1962 <dbl>, lifeExp_1967 <dbl>,
## #   lifeExp_1972 <dbl>, lifeExp_1977 <dbl>, lifeExp_1982 <dbl>,
## #   lifeExp_1987 <dbl>, lifeExp_1992 <dbl>, lifeExp_1997 <dbl>,
## #   lifeExp_2002 <dbl>, lifeExp_2007 <dbl>, pop_1952 <dbl>,
## #   pop_1957 <dbl>, pop_1962 <dbl>, pop_1967 <dbl>, pop_1972 <dbl>,
## #   pop_1977 <dbl>, pop_1982 <dbl>, pop_1987 <dbl>, pop_1992 <dbl>,
## #   pop_1997 <dbl>, pop_2002 <dbl>, pop_2007 <dbl>

Note that pivot_wider() automatically separates variable names with an underscore if you have multiple variables in the names_from = argument. You can change this as follows:

gap_long %>% 
  pivot_wider(names_from = c(obstype, year),
              values_from = value,
              names_sep = ":")

## # A tibble: 142 x 38
##    continent country `gdpPercap:1952` `gdpPercap:1957` `gdpPercap:1962`
##    <chr>     <chr>              <dbl>            <dbl>            <dbl>
##  1 Africa    Algeria            2449.            3014.            2551.
##  2 Africa    Angola             3521.            3828.            4269.
##  3 Africa    Benin              1063.             960.             949.
##  4 Africa    Botswa~             851.             918.             984.
##  5 Africa    Burkin~             543.             617.             723.
##  6 Africa    Burundi             339.             380.             355.
##  7 Africa    Camero~            1173.            1313.            1400.
##  8 Africa    Centra~            1071.            1191.            1193.
##  9 Africa    Chad               1179.            1308.            1390.
## 10 Africa    Comoros            1103.            1211.            1407.
## # ... with 132 more rows, and 33 more variables: `gdpPercap:1967` <dbl>,
## #   `gdpPercap:1972` <dbl>, `gdpPercap:1977` <dbl>,
## #   `gdpPercap:1982` <dbl>, `gdpPercap:1987` <dbl>,
## #   `gdpPercap:1992` <dbl>, `gdpPercap:1997` <dbl>,
## #   `gdpPercap:2002` <dbl>, `gdpPercap:2007` <dbl>, `lifeExp:1952` <dbl>,
## #   `lifeExp:1957` <dbl>, `lifeExp:1962` <dbl>, `lifeExp:1967` <dbl>,
## #   `lifeExp:1972` <dbl>, `lifeExp:1977` <dbl>, `lifeExp:1982` <dbl>,
## #   `lifeExp:1987` <dbl>, `lifeExp:1992` <dbl>, `lifeExp:1997` <dbl>,
## #   `lifeExp:2002` <dbl>, `lifeExp:2007` <dbl>, `pop:1952` <dbl>,
…
